…
electricity1 <- electricity %>% select(-(2:46),-(52:54))
electricity2 <- electricity1[-c(1,55:57),] %>% 
  rename (electricity_emission_by_state = `Electricity Emissions by State (1970 - 2020)`)
electricity2

## # A tibble: 53 × 6
##    electricity_emission_by_state  ...47  ...48  ...49  ...50  ...51
##    <chr>                          <dbl>  <dbl>  <dbl>  <dbl>  <dbl>
##  1 State                         2015   2016   2017   2018   2019  
##  2 Alabama                         62.4   55.6   51     53.9   48.5
##  3 Alaska                           3      2.8    2.8    2.7    2.7
##  4 Arizona                         50     44.6   43.8   46.8   43.5
##  5 Arkansas                        27.3   30.5   32.1   37     31.2
##  6 California                      44.1   36.5   32.9   33.6   31.1
##  7 Colorado                        37     35.6   35.2   34.2   33.5
##  8 Connecticut                      7.4    7      6.3    8      7.9
##  9 Delaware                         3.3    3.6    2.9    2.6    1.8
## 10 District of Columbia             0      0      0      0      0  
## # … with 43 more rows
…
library(dplyr)
library(tidyverse)
air1 <- read_csv("AIRTRANS_CO2.csv", show_col_types = FALSE) %>% 
  filter(LOCATION == "USA", values_drop_na = TRUE) %>% 
  arrange(order(Time)) %>% 
  select(-POLLUTANT, -MEASURE, -FLIGHT, -FREQUENCY, -SOURCE, -SEASONALITY, -TIME, -`Flag Codes`, -Flags) %>% 
  filter(Time > 2014 & Time < 2020) %>% 
  rename(flight_type = `Flight type`, source_of_emissions = `Source of emissions`) %>% 
  group_by(flight_type, source_of_emissions) %>% 
  mutate(count = n()) %>% 
  as_tibble(air1) %>% 
  ungroup() 
air1

## # A tibble: 180 × 11
##    LOCATION Country  Pollutant  Measure flight_type Frequency source_of_emissio…
##    <chr>    <chr>    <chr>      <chr>   <chr>       <chr>     <chr>             
##  1 USA      United … Carbon di… tonnes… All flights Annual    "\"(A) - Domestic…
##  2 USA      United … Carbon di… tonnes… All flights Annual    "\"(E) - Internat…
##  3 USA      United … Carbon di… tonnes… All flights Annual    "Bridging item - …
##  4 USA      United … Carbon di… tonnes… Passenger … Annual    "\"(A) - Domestic…
##  5 USA      United … Carbon di… tonnes… Passenger … Annual    "\"(E) - Internat…
##  6 USA      United … Carbon di… tonnes… Passenger … Annual    "Bridging item - …
##  7 USA      United … Carbon di… tonnes… Freight fl… Annual    "\"(A) - Domestic…
##  8 USA      United … Carbon di… tonnes… Freight fl… Annual    "\"(E) - Internat…
##  9 USA      United … Carbon di… tonnes… Freight fl… Annual    "Bridging item - …
## 10 USA      United … Carbon di… tonnes… All flights Annual    "\"(A) - Domestic…
## # … with 170 more rows, and 4 more variables: Seasonality <chr>, Time <chr>,
## #   Value <dbl>, count <int>
…
Agri2 <- 
  Agri %>% filter(Area == "United States of America") %>%
  filter(str_detect(Element, "CO2eq")) %>%
  mutate(unit = "tonnes") %>%
  select(Area, Item, Element,unit, Y2015:Y2019) %>%
  pivot_longer(c(Y2015:Y2019),
               names_to = "Year", values_to = "emission") %>%
  drop_na()
Agri2

## # A tibble: 445 × 6
##    Area                     Item                 Element    unit  Year  emission
##    <chr>                    <chr>                <chr>      <chr> <chr>    <dbl>
##  1 United States of America Enteric Fermentation Emissions… tonn… Y2015  161470.
##  2 United States of America Enteric Fermentation Emissions… tonn… Y2016  165788.
##  3 United States of America Enteric Fermentation Emissions… tonn… Y2017  168569.
##  4 United States of America Enteric Fermentation Emissions… tonn… Y2018  169820.
##  5 United States of America Enteric Fermentation Emissions… tonn… Y2019  170583.
##  6 United States of America Enteric Fermentation Emissions… tonn… Y2015  186913.
##  7 United States of America Enteric Fermentation Emissions… tonn… Y2016  192910.
##  8 United States of America Enteric Fermentation Emissions… tonn… Y2017  196904.
##  9 United States of America Enteric Fermentation Emissions… tonn… Y2018  199334.
## 10 United States of America Enteric Fermentation Emissions… tonn… Y2019  199986.
## # … with 435 more rows
…
