…
## `summarise()` has grouped output by 'year_new', 'Item', 'Area', 'unit'. You can
## override using the `.groups` argument.
## Adding missing grouping variables: `Year`

Agri2

## # A tibble: 445 × 7
## # Groups:   Year, source_of_emissions, Country, Measure [120]
##    Year  source_of_emissions     Country     Measure Emission Element      year 
##    <chr> <chr>                   <chr>       <chr>      <dbl> <chr>        <chr>
##  1 Y2015 AFOLU                   United Sta… tonnes    4.47e8 Emissions (… 2015 
##  2 Y2015 AFOLU                   United Sta… tonnes    4.47e8 Emissions (… 2015 
##  3 Y2015 AFOLU                   United Sta… tonnes    4.47e8 Emissions (… 2015 
##  4 Y2015 Agricultural Soils      United Sta… tonnes    9.09e8 Emissions (… 2015 
##  5 Y2015 Agricultural Soils      United Sta… tonnes    9.09e8 Emissions (… 2015 
##  6 Y2015 Agricultural Soils      United Sta… tonnes    9.09e8 Emissions (… 2015 
##  7 Y2015 Agricultural Soils      United Sta… tonnes    9.09e8 Emissions (… 2015 
##  8 Y2015 Burning - Crop residues United Sta… tonnes    9.06e6 Emissions (… 2015 
##  9 Y2015 Burning - Crop residues United Sta… tonnes    9.06e6 Emissions (… 2015 
## 10 Y2015 Burning - Crop residues United Sta… tonnes    9.06e6 Emissions (… 2015 
## # … with 435 more rows

library(dplyr)
library(tidyverse)
air1 <- read_csv("AIRTRANS_CO2.csv", show_col_types = FALSE) %>% 
  filter(LOCATION == "USA", values_drop_na = TRUE) %>% 
  arrange(order(Time)) %>% 
  select(-POLLUTANT, -MEASURE, -FLIGHT, -FREQUENCY, -SOURCE, -SEASONALITY, -TIME, -`Flag Codes`, -Flags, -Pollutant, -LOCATION) %>% 
  filter(Time > 2014 & Time < 2020) %>% 
  rename(flight_type = `Flight type`, source_of_emissions = `Source of emissions`, Year = Time, Emission = Value) %>%
  rename(year = Year) %>%
  ungroup() 

air1

## # A tibble: 180 × 8
##    Country  Measure  flight_type  Frequency source_of_emissio… Seasonality year 
##    <chr>    <chr>    <chr>        <chr>     <chr>              <chr>       <chr>
##  1 United … tonnes … All flights  Annual    "\"(A) - Domestic… Non season… 2015 
##  2 United … tonnes … All flights  Annual    "\"(E) - Internat… Non season… 2015 
##  3 United … tonnes … All flights  Annual    "Bridging item - … Non season… 2015 
##  4 United … tonnes … Passenger f… Annual    "\"(A) - Domestic… Non season… 2015 
##  5 United … tonnes … Passenger f… Annual    "\"(E) - Internat… Non season… 2015 
##  6 United … tonnes … Passenger f… Annual    "Bridging item - … Non season… 2015 
##  7 United … tonnes … Freight fli… Annual    "\"(A) - Domestic… Non season… 2015 
##  8 United … tonnes … Freight fli… Annual    "\"(E) - Internat… Non season… 2015 
##  9 United … tonnes … Freight fli… Annual    "Bridging item - … Non season… 2015 
## 10 United … tonnes … All flights  Annual    "\"(A) - Domestic… Non season… 2016 
## # … with 170 more rows, and 1 more variable: Emission <dbl>

air1 %>%
  select(year, source_of_emissions, Country, Measure, flight_type, Emission) %>%
  left_join(Agri2, by = "year") %>%
  mutate(sum_emission = Emission.x + Emission.y)

## # A tibble: 16,020 × 13
##    year  source_of_emissions.x Country.x Measure.x  flight_type Emission.x Year 
##    <chr> <chr>                 <chr>     <chr>      <chr>            <dbl> <chr>
##  1 2015  "\"(A) - Domestic fl… United S… tonnes of… All flights 131471937. Y2015
##  2 2015  "\"(A) - Domestic fl… United S… tonnes of… All flights 131471937. Y2015
##  3 2015  "\"(A) - Domestic fl… United S… tonnes of… All flights 131471937. Y2015
##  4 2015  "\"(A) - Domestic fl… United S… tonnes of… All flights 131471937. Y2015
##  5 2015  "\"(A) - Domestic fl… United S… tonnes of… All flights 131471937. Y2015
##  6 2015  "\"(A) - Domestic fl… United S… tonnes of… All flights 131471937. Y2015
##  7 2015  "\"(A) - Domestic fl… United S… tonnes of… All flights 131471937. Y2015
##  8 2015  "\"(A) - Domestic fl… United S… tonnes of… All flights 131471937. Y2015
##  9 2015  "\"(A) - Domestic fl… United S… tonnes of… All flights 131471937. Y2015
## 10 2015  "\"(A) - Domestic fl… United S… tonnes of… All flights 131471937. Y2015
## # … with 16,010 more rows, and 6 more variables: source_of_emissions.y <chr>,
## #   Country.y <chr>, Measure.y <chr>, Emission.y <dbl>, Element <chr>,
## #   sum_emission <dbl>
…
electricity1

## # A tibble: 5 × 3
##   State        year electricity_emission
##   <chr>       <dbl>                <dbl>
## 1 State Total  2015                1901.
## 2 State Total  2016                1810.
## 3 State Total  2017                1733.
## 4 State Total  2018                1754.
## 5 State Total  2019                1608.

electricity_40

## # A tibble: 51 × 3
##    State        year electricity_emission
##    <chr>       <dbl>                <dbl>
##  1 State Total  1970                1061.
##  2 State Total  1971                1099.
##  3 State Total  1972                1192.
##  4 State Total  1973                1283.
##  5 State Total  1974                1249 
##  6 State Total  1975                1244.
##  7 State Total  1976                1352.
##  8 State Total  1977                1440.
##  9 State Total  1978                1447.
## 10 State Total  1979                1508.
## # … with 41 more rows
