…
air1 <- read_csv("AIRTRANS_CO2.csv", show_col_types = FALSE) %>% 
  filter(LOCATION == "USA", values_drop_na = TRUE) %>% 
  arrange(order(Time)) %>% 
  select(-POLLUTANT, -MEASURE, -FLIGHT, -FREQUENCY, -SOURCE, -SEASONALITY, -TIME, -`Flag Codes`, -Flags, -Pollutant, -LOCATION) %>% 
  filter(Time > 2014 & Time < 2020) %>% 
  rename(flight_type = `Flight type`, source_of_emissions = `Source of emissions`, Year = Time, Emission = Value) %>%
  ungroup() 
air1

## # A tibble: 180 × 8
##    Country  Measure  flight_type  Frequency source_of_emissio… Seasonality Year 
##    <chr>    <chr>    <chr>        <chr>     <chr>              <chr>       <chr>
##  1 United … tonnes … All flights  Annual    "\"(A) - Domestic… Non season… 2015 
##  2 United … tonnes … All flights  Annual    "\"(E) - Internat… Non season… 2015 
##  3 United … tonnes … All flights  Annual    "Bridging item - … Non season… 2015 
##  4 United … tonnes … Passenger f… Annual    "\"(A) - Domestic… Non season… 2015 
##  5 United … tonnes … Passenger f… Annual    "\"(E) - Internat… Non season… 2015 
##  6 United … tonnes … Passenger f… Annual    "Bridging item - … Non season… 2015 
##  7 United … tonnes … Freight fli… Annual    "\"(A) - Domestic… Non season… 2015 
##  8 United … tonnes … Freight fli… Annual    "\"(E) - Internat… Non season… 2015 
##  9 United … tonnes … Freight fli… Annual    "Bridging item - … Non season… 2015 
## 10 United … tonnes … All flights  Annual    "\"(A) - Domestic… Non season… 2016 
## # … with 170 more rows, and 1 more variable: Emission <dbl>
…
## `summarise()` has grouped output by 'year_new', 'Item', 'Area', 'unit'. You can
## override using the `.groups` argument.

Agri2

## # A tibble: 445 × 6
## # Groups:   Year, source_of_emissions, Country, Measure [120]
##    Year  source_of_emissions     Country       Measure  Emission Element        
##    <chr> <chr>                   <chr>         <chr>       <dbl> <chr>          
##  1 Y2015 AFOLU                   United State… tonnes     4.47e8 Emissions (CO2…
##  2 Y2015 AFOLU                   United State… tonnes     4.47e8 Emissions (CO2…
##  3 Y2015 AFOLU                   United State… tonnes     4.47e8 Emissions (CO2…
##  4 Y2015 Agricultural Soils      United State… tonnes     9.09e8 Emissions (CO2…
##  5 Y2015 Agricultural Soils      United State… tonnes     9.09e8 Emissions (CO2…
##  6 Y2015 Agricultural Soils      United State… tonnes     9.09e8 Emissions (CO2…
##  7 Y2015 Agricultural Soils      United State… tonnes     9.09e8 Emissions (CO2…
##  8 Y2015 Burning - Crop residues United State… tonnes     9.06e6 Emissions (CO2…
##  9 Y2015 Burning - Crop residues United State… tonnes     9.06e6 Emissions (CO2…
## 10 Y2015 Burning - Crop residues United State… tonnes     9.06e6 Emissions (CO2…
## # … with 435 more rows
…
