…
library(dplyr)
library(AICcmodavg)
library(ggcorrplot)
library(ggplot2)

co2_data <- read_csv("owid-co2-data.csv", show_col_types = FALSE)

co2_data1 <- co2_data %>%
   select(country, year, population, gdp, energy_per_capita, energy_per_gdp, primary_energy_consumption, total_ghg) %>%
  na.omit() 

co2_data1

## # A tibble: 4,628 × 8
##    country      year population         gdp energy_per…¹ energ…² prima…³ total…⁴
##    <chr>       <dbl>      <dbl>       <dbl>        <dbl>   <dbl>   <dbl>   <dbl>
##  1 Afghanistan  1990   10694804 13065984000        2968.   2.43    31.7     9.58
##  2 Afghanistan  1991   10745168 12047362048        1294.   1.15    13.9     9.81
##  3 Afghanistan  1992   12057436 12677538816         760.   0.723    9.17    9.03
##  4 Afghanistan  1993   14003764  9834580992         650.   0.926    9.10    9.11
##  5 Afghanistan  1994   15455560  7919857152         570.   1.11     8.82    9.15
##  6 Afghanistan  1995   16418911 12307525632         452.   0.604    7.43    9.58
##  7 Afghanistan  1996   17106600 12070125568         426.   0.604    7.29   10.6 
##  8 Afghanistan  1997   17788818 11850752000         390.   0.585    6.94   11.6 
##  9 Afghanistan  1998   18493134 11692172288         365.   0.577    6.75   12.4 
## 10 Afghanistan  1999   19262854 11517317120         350.   0.586    6.75   13.3 
## # … with 4,618 more rows, and abbreviated variable names ¹​energy_per_capita,
## #   ²​energy_per_gdp, ³​primary_energy_consumption, ⁴​total_ghg
…
co2_data2 <- co2_data1 %>%
  select(-country, -year, -total_ghg)
co2_data2

## # A tibble: 4,628 × 5
##    population         gdp energy_per_capita energy_per_gdp primary_energy_cons…¹
##         <dbl>       <dbl>             <dbl>          <dbl>                 <dbl>
##  1   10694804 13065984000             2968.          2.43                  31.7 
##  2   10745168 12047362048             1294.          1.15                  13.9 
##  3   12057436 12677538816              760.          0.723                  9.17
##  4   14003764  9834580992              650.          0.926                  9.10
##  5   15455560  7919857152              570.          1.11                   8.82
##  6   16418911 12307525632              452.          0.604                  7.43
##  7   17106600 12070125568              426.          0.604                  7.29
##  8   17788818 11850752000              390.          0.585                  6.94
##  9   18493134 11692172288              365.          0.577                  6.75
## 10   19262854 11517317120              350.          0.586                  6.75
## # … with 4,618 more rows, and abbreviated variable name
## #   ¹​primary_energy_consumption
…
## `summarise()` has grouped output by 'year', 'Item', 'Area'. You can override
## using the `.groups` argument.
## Adding missing grouping variables: `Country`
## `summarise()` has grouped output by 'Country', 'year'. You can override using
## the `.groups` argument.

Agri_land$year = as.numeric(Agri_land$year)
Agri_land

## # A tibble: 8,149 × 4
## # Groups:   country, year [8,149]
##    country      year source_of_emissions            Emissions
##    <chr>       <dbl> <chr>                              <dbl>
##  1 Afghanistan  1990 Emissions on agricultural land 51478796.
##  2 Afghanistan  1991 Emissions on agricultural land 53359569.
##  3 Afghanistan  1992 Emissions on agricultural land 52948406.
##  4 Afghanistan  1993 Emissions on agricultural land 53377980.
##  5 Afghanistan  1994 Emissions on agricultural land 53840537.
##  6 Afghanistan  1995 Emissions on agricultural land 56579957.
##  7 Afghanistan  1996 Emissions on agricultural land 63100684.
##  8 Afghanistan  1997 Emissions on agricultural land 69216291.
##  9 Afghanistan  1998 Emissions on agricultural land 74177975.
## 10 Afghanistan  1999 Emissions on agricultural land 80778458.
## # … with 8,139 more rows
…
Afghanistan
1994
Emissions on agricultural land
53840537

Afghanistan
1995
Emissions on agricultural land
56579957

co2_agri <- full_join(co2_data1, Agri_land, by = c("year", "country"))
co2_agri

## # A tibble: 8,381 × 10
##    country  year popul…¹     gdp energ…² energ…³ prima…⁴ total…⁵ sourc…⁶ Emiss…⁷
##    <chr>   <dbl>   <dbl>   <dbl>   <dbl>   <dbl>   <dbl>   <dbl> <chr>     <dbl>
##  1 Afghan…  1990  1.07e7 1.31e10   2968.   2.43    31.7     9.58 Emissi…  5.15e7
##  2 Afghan…  1991  1.07e7 1.20e10   1294.   1.15    13.9     9.81 Emissi…  5.34e7
##  3 Afghan…  1992  1.21e7 1.27e10    760.   0.723    9.17    9.03 Emissi…  5.29e7
##  4 Afghan…  1993  1.40e7 9.83e 9    650.   0.926    9.10    9.11 Emissi…  5.34e7
##  5 Afghan…  1994  1.55e7 7.92e 9    570.   1.11     8.82    9.15 Emissi…  5.38e7
##  6 Afghan…  1995  1.64e7 1.23e10    452.   0.604    7.43    9.58 Emissi…  5.66e7
##  7 Afghan…  1996  1.71e7 1.21e10    426.   0.604    7.29   10.6  Emissi…  6.31e7
##  8 Afghan…  1997  1.78e7 1.19e10    390.   0.585    6.94   11.6  Emissi…  6.92e7
##  9 Afghan…  1998  1.85e7 1.17e10    365.   0.577    6.75   12.4  Emissi…  7.42e7
## 10 Afghan…  1999  1.93e7 1.15e10    350.   0.586    6.75   13.3  Emissi…  8.08e7
## # … with 8,371 more rows, and abbreviated variable names ¹​population,
## #   ²​energy_per_capita, ³​energy_per_gdp, ⁴​primary_energy_consumption,
## #   ⁵​total_ghg, ⁶​source_of_emissions, ⁷​Emissions

co2_agri <- co2_agri %>% 
  mutate(total_ghg2 = total_ghg * 1000) %>%
  select(-total_ghg) %>%
  rename(`Agriculture_emissions(kilotonnes)` = Emissions, `total_ghg(kilotonnes)` = total_ghg2)
co2_agri <- co2_agri %>% mutate(agri_ghg_total = rowSums(co2_agri[,c(9,10)])) %>% 
  na.omit()

co2_agri

## # A tibble: 4,396 × 11
##    country  year popul…¹     gdp energ…² energ…³ prima…⁴ sourc…⁵ Agric…⁶ total…⁷
##    <chr>   <dbl>   <dbl>   <dbl>   <dbl>   <dbl>   <dbl> <chr>     <dbl>   <dbl>
##  1 Afghan…  1990  1.07e7 1.31e10   2968.   2.43    31.7  Emissi…  5.15e7    9580
##  2 Afghan…  1991  1.07e7 1.20e10   1294.   1.15    13.9  Emissi…  5.34e7    9810
##  3 Afghan…  1992  1.21e7 1.27e10    760.   0.723    9.17 Emissi…  5.29e7    9030
##  4 Afghan…  1993  1.40e7 9.83e 9    650.   0.926    9.10 Emissi…  5.34e7    9110
##  5 Afghan…  1994  1.55e7 7.92e 9    570.   1.11     8.82 Emissi…  5.38e7    9150
##  6 Afghan…  1995  1.64e7 1.23e10    452.   0.604    7.43 Emissi…  5.66e7    9580
##  7 Afghan…  1996  1.71e7 1.21e10    426.   0.604    7.29 Emissi…  6.31e7   10610
##  8 Afghan…  1997  1.78e7 1.19e10    390.   0.585    6.94 Emissi…  6.92e7   11580
##  9 Afghan…  1998  1.85e7 1.17e10    365.   0.577    6.75 Emissi…  7.42e7   12400
## 10 Afghan…  1999  1.93e7 1.15e10    350.   0.586    6.75 Emissi…  8.08e7   13280
## # … with 4,386 more rows, 1 more variable: agri_ghg_total <dbl>, and
## #   abbreviated variable names ¹​population, ²​energy_per_capita,
## #   ³​energy_per_gdp, ⁴​primary_energy_consumption, ⁵​source_of_emissions,
## #   ⁶​`Agriculture_emissions(kilotonnes)`, ⁷​`total_ghg(kilotonnes)`
…
