…
air1 <- read_csv("AIRTRANS_CO2.csv", show_col_types = FALSE) %>% 
  filter(LOCATION == "USA", values_drop_na = TRUE) %>% 
  filter(Time > 2014 & Time < 2020) %>%
  arrange(Time) %>% 
  select(-POLLUTANT, -MEASURE, -FLIGHT, -FREQUENCY, -SOURCE, -SEASONALITY, -TIME, -`Flag Codes`, -Flags, -Pollutant, -LOCATION) %>%
  rename(flight_type = `Flight type`, source_of_emissions = `Source of emissions`, Year = Time, Emission = Value, `Element(tonnes)` = Measure) %>%
  rename(year = Year) %>%
  select(-Frequency, -Seasonality) %>%
  select(Country, year, source_of_emissions, Emission, `Element(tonnes)`) %>%
  ungroup() 

air1

## # A tibble: 180 × 5
##    Country       year  source_of_emissions            Emission `Element(tonnes)`
##    <chr>         <chr> <chr>                             <dbl> <chr>            
##  1 United States 2015  "\"(A) - Domestic flight in …    1.31e8 tonnes of CO2-eq…
##  2 United States 2015  "\"(B) - Domestic flight out…    2.66e7 tonnes of CO2-eq…
##  3 United States 2015  "\"(C) - Domestic flight in …    2.66e6 tonnes of CO2-eq…
##  4 United States 2015  "\"(D) - International fligh…    2.47e7 tonnes of CO2-eq…
##  5 United States 2015  "\"(E) - International fligh…    5.06e7 tonnes of CO2-eq…
##  6 United States 2015  "\"(F) - International fligh…    2.74e7 tonnes of CO2-eq…
##  7 United States 2015  "\"(G) - International fligh…    4.29e7 tonnes of CO2-eq…
##  8 United States 2015  "Air transport - Industry H5…    1.54e8 tonnes of CO2-eq…
##  9 United States 2015  "Bridging item - Residents a…    4.95e7 tonnes of CO2-eq…
## 10 United States 2015  "Bridging item - Non-residen…    2.66e6 tonnes of CO2-eq…
## # … with 170 more rows
…
## `summarise()` has grouped output by 'year', 'Item', 'Area'. You can override
## using the `.groups` argument.
## Adding missing grouping variables: `Country`

Agri2

## # A tibble: 445 × 5
##    Country                  year  source_of_emissio… Emission `Element(tonnes)` 
##    <chr>                    <chr> <chr>                 <dbl> <chr>             
##  1 United States of America 2015  AFOLU                4.47e8 Emissions (CO2eq)…
##  2 United States of America 2015  AFOLU                4.47e8 Emissions (CO2eq)…
##  3 United States of America 2015  AFOLU                4.47e8 Emissions (CO2eq)…
##  4 United States of America 2015  Agricultural Soils   9.09e8 Emissions (CO2eq)…
##  5 United States of America 2015  Agricultural Soils   9.09e8 Emissions (CO2eq)…
##  6 United States of America 2015  Agricultural Soils   9.09e8 Emissions (CO2eq)…
##  7 United States of America 2015  Agricultural Soils   9.09e8 Emissions (CO2eq)…
##  8 United States of America 2015  Burning - Crop re…   9.06e6 Emissions (CO2eq)…
##  9 United States of America 2015  Burning - Crop re…   9.06e6 Emissions (CO2eq)…
## 10 United States of America 2015  Burning - Crop re…   9.06e6 Emissions (CO2eq)…
## # … with 435 more rows
…
## New names:
## • `` -> `...1`

## Warning: The following named parsers don't match the column names: value

vehi1 <- vehi %>%
  filter(!row_number() %in% c(1,2,3,23,24,27:95)) %>%
  rename(source_of_emissions = ...1) %>%
  select(source_of_emissions, "2015":"2019") %>%
  pivot_longer(c("2015":"2019"), names_to = "year")%>%
  arrange(year) %>% na.omit(vehi) %>% rename(type_of_cars = source_of_emissions)

vehi1

## # A tibble: 90 × 3
##    type_of_cars                              year  value      
##    <chr>                                     <chr> <chr>      
##  1 Highway, total (registered vehicles)      2015  263,610,219
##  2 Light duty vehicle, short wheel basec,d   2015  189,618,308
##  3 Motorcycled                               2015  8,600,936  
##  4 Light duty vehicle, long wheel basec      2015  53,298,884 
##  5 Truck, single-unit 2-axle 6-tire or moref 2015  8,456,302  
##  6 Truck, combinatione,f                     2015  2,746,882  
##  7 Bus                                       2015  888,907    
##  8 Motor bush                                2015  63,573     
##  9 Light rail carsi                          2015  2,478      
## 10 Heavy rail cars                           2015  10,737     
## # … with 80 more rows

Variables explanation

highway: It is a public or private road or other public way on land. Transportation on highway can produce a large amount of emission every year.

bus: It is a large motor vehicle carrying passengers by road. Bus is a public transportation tool that takes many people at the same time, so it improves energy efficiency. It produces less emissions compared with nonpublic transportation tools like cars. Buses can reduce carbon emissions by as much as 37 million metric tons per year
Amtrak(passenger train car):It operates inter-city rail service in 46 of the 48 contiguous U.S. States. Passenger train car solely takes people. The emissions for rail were computed under the assumption that an Amtrak uses 2.2 gallons of fuel per mile, and the locomotives produce about 33.6 Kg of CO2e per mile.

Code combined multiple data files

Agri_air <- rbind(Agri2, air1)
Agri_air

## # A tibble: 625 × 5
##    Country                  year  source_of_emissio… Emission `Element(tonnes)` 
##    <chr>                    <chr> <chr>                 <dbl> <chr>             
##  1 United States of America 2015  AFOLU                4.47e8 Emissions (CO2eq)…
##  2 United States of America 2015  AFOLU                4.47e8 Emissions (CO2eq)…
##  3 United States of America 2015  AFOLU                4.47e8 Emissions (CO2eq)…
##  4 United States of America 2015  Agricultural Soils   9.09e8 Emissions (CO2eq)…
##  5 United States of America 2015  Agricultural Soils   9.09e8 Emissions (CO2eq)…
##  6 United States of America 2015  Agricultural Soils   9.09e8 Emissions (CO2eq)…
##  7 United States of America 2015  Agricultural Soils   9.09e8 Emissions (CO2eq)…
##  8 United States of America 2015  Burning - Crop re…   9.06e6 Emissions (CO2eq)…
##  9 United States of America 2015  Burning - Crop re…   9.06e6 Emissions (CO2eq)…
## 10 United States of America 2015  Burning - Crop re…   9.06e6 Emissions (CO2eq)…
## # … with 615 more rows

save(Agri2, air1, file = "Agri_air.csv")

Agri_air_car <- left_join(Agri_air, vehi1, by = "year")
Agri_air_car

## # A tibble: 11,250 × 7
##    Country  year  source_of_emissi… Emission `Element(tonnes… type_of_cars value
##    <chr>    <chr> <chr>                <dbl> <chr>            <chr>        <chr>
##  1 United … 2015  AFOLU               4.47e8 Emissions (CO2e… Highway, to… 263,…
##  2 United … 2015  AFOLU               4.47e8 Emissions (CO2e… Light duty … 189,…
##  3 United … 2015  AFOLU               4.47e8 Emissions (CO2e… Motorcycled  8,60…
##  4 United … 2015  AFOLU               4.47e8 Emissions (CO2e… Light duty … 53,2…
##  5 United … 2015  AFOLU               4.47e8 Emissions (CO2e… Truck, sing… 8,45…
##  6 United … 2015  AFOLU               4.47e8 Emissions (CO2e… Truck, comb… 2,74…
##  7 United … 2015  AFOLU               4.47e8 Emissions (CO2e… Bus          888,…
##  8 United … 2015  AFOLU               4.47e8 Emissions (CO2e… Motor bush   63,5…
##  9 United … 2015  AFOLU               4.47e8 Emissions (CO2e… Light rail … 2,478
## 10 United … 2015  AFOLU               4.47e8 Emissions (CO2e… Heavy rail … 10,7…
## # … with 11,240 more rows
…
