…
## `summarise()` has grouped output by 'year', 'Item', 'Area'. You can override
## using the `.groups` argument.
## Adding missing grouping variables: `Country`

Agri2

## # A tibble: 445 × 5
##    Country                  year  source_of_emissio… Emission `Element(tonnes)` 
##    <chr>                    <chr> <chr>                 <dbl> <chr>             
##  1 United States of America 2015  AFOLU                4.47e8 Emissions (CO2eq)…
##  2 United States of America 2015  AFOLU                4.47e8 Emissions (CO2eq)…
##  3 United States of America 2015  AFOLU                4.47e8 Emissions (CO2eq)…
##  4 United States of America 2015  Agricultural Soils   9.09e8 Emissions (CO2eq)…
##  5 United States of America 2015  Agricultural Soils   9.09e8 Emissions (CO2eq)…
##  6 United States of America 2015  Agricultural Soils   9.09e8 Emissions (CO2eq)…
##  7 United States of America 2015  Agricultural Soils   9.09e8 Emissions (CO2eq)…
##  8 United States of America 2015  Burning - Crop re…   9.06e6 Emissions (CO2eq)…
##  9 United States of America 2015  Burning - Crop re…   9.06e6 Emissions (CO2eq)…
## 10 United States of America 2015  Burning - Crop re…   9.06e6 Emissions (CO2eq)…
## # … with 435 more rows
…
air1

## # A tibble: 180 × 5
##    Country       year  source_of_emissions            Emission `Element(tonnes)`
##    <chr>         <chr> <chr>                             <dbl> <chr>            
##  1 United States 2015  "\"(A) - Domestic flight in …    1.31e8 tonnes of CO2-eq…
##  2 United States 2015  "\"(E) - International fligh…    5.06e7 tonnes of CO2-eq…
##  3 United States 2015  "Bridging item - Residents a…    4.95e7 tonnes of CO2-eq…
##  4 United States 2015  "\"(A) - Domestic flight in …    1.04e8 tonnes of CO2-eq…
##  5 United States 2015  "\"(E) - International fligh…    2.37e7 tonnes of CO2-eq…
##  6 United States 2015  "Bridging item - Residents a…    4.81e7 tonnes of CO2-eq…
##  7 United States 2015  "\"(A) - Domestic flight in …    8.04e5 tonnes of CO2-eq…
##  8 United States 2015  "\"(E) - International fligh…    3.05e5 tonnes of CO2-eq…
##  9 United States 2015  "Bridging item - Residents a…    1.47e6 tonnes of CO2-eq…
## 10 United States 2016  "\"(A) - Domestic flight in …    1.43e8 tonnes of CO2-eq…
## # … with 170 more rows
…
vehi <- read_csv("Vehicle.csv", show_col_types = FALSE, skip = 1)

## New names:
## • `` -> `...1`

vehi1 <- vehi %>%
  filter(!row_number() %in% c(1,2,3,23,24,27:95)) %>%
  rename(source_of_emissions = ...1) %>%
  select(source_of_emissions, "2015":"2019") %>%
  pivot_longer(c("2015":"2019"), names_to = "year")%>%
  arrange(order("year")) 

vehi1

## # A tibble: 110 × 3
##    source_of_emissions                     year  value      
##    <chr>                                   <chr> <chr>      
##  1 Highway, total (registered vehicles)    2015  263,610,219
##  2 Highway, total (registered vehicles)    2016  268,799,083
##  3 Highway, total (registered vehicles)    2017  272,480,899
##  4 Highway, total (registered vehicles)    2018  273,602,100
##  5 Highway, total (registered vehicles)    2019  276,491,174
##  6 Light duty vehicle, short wheel basec,d 2015  189,618,308
##  7 Light duty vehicle, short wheel basec,d 2016  192,774,508
##  8 Light duty vehicle, short wheel basec,d 2017  193,672,370
##  9 Light duty vehicle, short wheel basec,d 2018  192,856,211
## 10 Light duty vehicle, short wheel basec,d 2019  194,348,815
## # … with 100 more rows

Agri_air_car <- left_join(Agri_air, vehi1, by = "year")
Agri_air_car

## # A tibble: 13,750 × 7
##    Country   year  source_of_emissi… Emission `Element(tonnes… source_of_emissi…
##    <chr>     <chr> <chr>                <dbl> <chr>            <chr>            
##  1 United S… 2015  AFOLU               4.47e8 Emissions (CO2e… Highway, total (…
##  2 United S… 2015  AFOLU               4.47e8 Emissions (CO2e… Light duty vehic…
##  3 United S… 2015  AFOLU               4.47e8 Emissions (CO2e… Motorcycled      
##  4 United S… 2015  AFOLU               4.47e8 Emissions (CO2e… Light duty vehic…
##  5 United S… 2015  AFOLU               4.47e8 Emissions (CO2e… Truck, single-un…
##  6 United S… 2015  AFOLU               4.47e8 Emissions (CO2e… Truck, combinati…
##  7 United S… 2015  AFOLU               4.47e8 Emissions (CO2e… Bus              
##  8 United S… 2015  AFOLU               4.47e8 Emissions (CO2e… Transitg         
##  9 United S… 2015  AFOLU               4.47e8 Emissions (CO2e… Motor bush       
## 10 United S… 2015  AFOLU               4.47e8 Emissions (CO2e… Light rail carsi 
## # … with 13,740 more rows, and 1 more variable: value <chr>
…
